Descend into 'test' directory
COMPILING
rm -rf *.o *.c *.tab.[ch] *.output *.act
bison -d -t main.y
cc    -c -o main.tab.o main.tab.c
main.y:11:1: warning: data definition has no type or storage class
 yydebug=1;
 ^~~~~~~
main.y:11:1: warning: type defaults to ‘int’ in declaration of ‘yydebug’ [-Wimplicit-int]
main.tab.c: In function ‘yyparse’:
main.tab.c:1174:16: warning: implicit declaration of function ‘yylex’ [-Wimplicit-function-declaration]
       yychar = yylex ();
                ^~~~~
main.y:24:9: warning: implicit declaration of function ‘exit’ [-Wimplicit-function-declaration]
         exit(0);
         ^~~~
main.y:24:9: warning: incompatible implicit declaration of built-in function ‘exit’
main.y:24:9: note: include ‘<stdlib.h>’ or provide a declaration of ‘exit’
main.tab.c:1312:7: warning: implicit declaration of function ‘yyerror’; did you mean ‘yyerrok’? [-Wimplicit-function-declaration]
       yyerror (YY_("syntax error"));
       ^~~~~~~
       yyerrok
flex  flex.l
cc    -c -o lex.yy.o lex.yy.c
flex.l:47:1: warning: return type defaults to ‘int’ [-Wimplicit-int]
 yywrap() {
 ^~~~~~
flex.l:51:1: warning: return type defaults to ‘int’ [-Wimplicit-int]
 yyerror (char const *s) {
 ^~~~~~~
gcc -DYDEBUG main.tab.o lex.yy.o -ly -o Aprog 
Build Complete
Return To 'working' directory
 
COMPILING COMPLETE
 
